[
    {
        "timeStamp": "2021-11-01T13:05:00Z",
        "messageText": "Nachricht 1"
    },
    {
        "timeStamp": "2021-11-01T13:10:00Z",
        "messageText": "Nachricht 2"
    },
    {
        "timeStamp": "2021-11-01T13:15:00Z",
        "messageText": "Nachricht 3"
    },{
        "timeStamp": "2021-11-01T13:20:00Z",
        "messageText": "Nachricht 4"
    }

]